%YAML 1.1
%TAG !u! tag:unity3d.com,2011:
--- !u!114 &11400000
MonoBehaviour:
  m_ObjectHideFlags: 0
  m_CorrespondingSourceObject: {fileID: 0}
  m_PrefabInstance: {fileID: 0}
  m_PrefabAsset: {fileID: 0}
  m_GameObject: {fileID: 0}
  m_Enabled: 1
  m_EditorHideFlags: 0
  m_Script: {fileID: 11500000, guid: 7d5fd28d118e3f54681cbd57341ebc04, type: 3}
  m_Name: InterfaceState
  m_EditorClassIdentifier: 
  selectedInterfaceTab: 0
  gridExists: 1
  previousBuildToolIndex: -1
  selectedBuildToolIndex: 0
  selectedPrefabIndex: 3
  prefabPath: Assets/Editor/FSP/Modular Pixel Forest/Prefabs
  selectedPrefabPaletteFolderIndex: 0
  prefabPaletteColumnCount: 3
  previousPaintToolIndex: -1
  selectedPaintToolIndex: -1
  selectedMaterialIndex: -1
  materialPath: Assets/Editor/FSP/Modular Pixel Forest/Materials
  selectedMaterialPaletteFolderIndex: 0
  materialPaletteColumnCount: 3
